Chapter 7 Classification II: evaluation & tuning | Data Science: A First Introduction
…
4. Predict the labels in the test set

Now that we have a K-nearest neighbour classifier object, we can use it to
predict the class labels for our test set. We use the bind_cols to add the
column of predictions to the original test data, creating the
cancer_test_predictions data frame. The Class variable contains the true
diagnoses, while the .pred_class contains the predicted diagnoses from the
model.

cancer_test_predictions <- predict(knn_fit, cancer_test) %>%
  bind_cols(cancer_test)
cancer_test_predictions

## # A tibble: 143 x 13
##    .pred_class       ID Class Radius Texture Perimeter  Area Smoothness Compactness Concavity Concave_Points Symmetry
##    <fct>          <dbl> <fct>  <dbl>   <dbl>     <dbl> <dbl>      <dbl>       <dbl>     <dbl>          <dbl>    <dbl>
##  1 M           84501001 M       12.5    24.0      84.0  476.     0.119       0.240     0.227          0.0854    0.203
##  2 B             846381 M       15.8    24.0     104.   783.     0.0840      0.100     0.0994         0.0536    0.185
##  3 M           84799002 M       14.5    27.5      96.7  659.     0.114       0.160     0.164          0.0736    0.230
##  4 M             849014 M       19.8    22.2     130   1260      0.0983      0.103     0.148          0.0950    0.158
##  5 M             852763 M       14.6    21.5      97.4  645.     0.105       0.187     0.142          0.0878    0.225
##  6 M             853401 M       18.6    25.1     125.  1088      0.106       0.189     0.232          0.124     0.218
##  7 B             854253 M       16.7    21.6     110.   870.     0.0961      0.134     0.135          0.0602    0.190
##  8 B             854941 B       13.0    18.4      82.6  524.     0.0898      0.0377    0.0256         0.0292    0.147
##  9 M             855138 M       13.5    20.8      88.4  559.     0.102       0.126     0.106          0.0544    0.172
## 10 B             855167 M       13.4    21.6      86.2  563      0.0816      0.0603    0.0311         0.0203    0.178
## # … with 133 more rows, and 1 more variable: Fractal_Dimension <dbl>
…
