Chapter 11 Introduction to Statistical Inference | Data Science: A First Introduction
…
Figure 11.2: A box of Timbits

Suppose we wanted to estimate the true proportion of chocolate doughnuts at Tim
Hortons restaurants. Now, of course, we (the authors!) do not have access to the true population.
So for this chapter, we created a fictitious box of 10,000 Timbits with two flavours—old-fashioned
and chocolate—as our population, and use this to illustrate
inferential concepts. Below we have a tibble() called virtual_box with a Timbit ID and flavour as our columns. We have also loaded our necessary packages: tidyverse and the infer package, which we will need to perform sampling later in the chapter.

library(tidyverse)
library(infer)
virtual_box

## # A tibble: 10,000 x 2
##    timbit_id flavour      
##        <dbl> <fct>        
##  1         1 chocolate    
##  2         2 old fashioned
##  3         3 chocolate    
##  4         4 chocolate    
##  5         5 chocolate    
##  6         6 old fashioned
##  7         7 chocolate    
##  8         8 chocolate    
##  9         9 old fashioned
## 10        10 old fashioned
## # … with 9,990 more rows
…
samples <- rep_sample_n(virtual_box, size = 40, reps = 15000)
samples

## # A tibble: 600,000 x 3
## # Groups:   replicate [15,000]
##    replicate timbit_id flavour      
##        <int>     <dbl> <fct>        
##  1         1      4419 old fashioned
##  2         1      6533 chocolate    
##  3         1      8005 chocolate    
##  4         1      7419 chocolate    
##  5         1      2649 old fashioned
##  6         1       510 chocolate    
##  7         1      4974 chocolate    
##  8         1      3647 chocolate    
##  9         1      6717 chocolate    
## 10         1         4 chocolate    
## # … with 599,990 more rows
…
Notice the column replicate is indicating the replicate, or sample, with which each
Timbit belongs. Since we took 15,000 samples of size 40, there are 15,000 replicates.
Now that we have taken 15,000 samples, to create a sampling distribution of sample proportions for samples of size 40, we need to calculate the proportion of chocolate Timbits for each sample, \(\hat{p}_\text{chocolate}\):

sample_estimates <- samples %>%
  group_by(replicate) %>%
  summarise(sample_proportion = sum(flavour == "chocolate") / 40)
sample_estimates

## # A tibble: 15,000 x 2
##    replicate sample_proportion
##        <int>             <dbl>
##  1         1             0.675
##  2         2             0.85 
##  3         3             0.7  
##  4         4             0.425
##  5         5             0.65 
##  6         6             0.7  
##  7         7             0.75 
##  8         8             0.575
##  9         9             0.55 
## 10        10             0.575
## # … with 14,990 more rows
…
The price per night of all Airbnb rentals in Vancouver, BC is $154.51, on average. This value is our population parameter since we are calculating it using the population data.

Suppose that we did not have access to the population data, yet we still wanted to estimate the mean price per night. We could answer this question by taking a random sample of as many Airbnb listings as we had time to, let’s say we could do this for 40 listings. What would such a sample look like?

Let’s take advantage of the fact that we do have access to the population data and simulate taking one random sample of 40 listings in R, again using rep_sample_n. After doing this we create a histogram to visualize the
distribution of observations in the sample,
and calculate the mean of our sample. This number is a point estimate for the mean of the full population.

sample_1 <- airbnb %>%
  rep_sample_n(40)
sample_1

## # A tibble: 40 x 9
## # Groups:   replicate [1]
##    replicate    id neighbourhood   room_type  accommodates bathrooms  bedrooms  beds price
##        <int> <int> <chr>           <chr>             <dbl> <chr>         <dbl> <dbl> <dbl>
##  1         1  1423 Sunset          Entire ho…            2 1 bath            1     1    99
##  2         1  2945 Grandview-Wood… Entire ho…            4 1 bath            2     3   140
##  3         1  1510 West End        Entire ho…            4 1 bath            1     1   104
##  4         1  3099 Downtown        Entire ho…            2 1 bath            1     1   119
##  5         1    51 Downtown        Private r…            2 1 shared …        2     1   249
##  6         1  4480 Downtown        Private r…            1 1 shared …        1     1    69
##  7         1   609 Hastings-Sunri… Entire ho…            3 1 bath            1     1   145
##  8         1  1635 Grandview-Wood… Entire ho…            6 2 baths           4     4   350
##  9         1  3262 Mount Pleasant  Entire ho…            7 2 baths           3     4   499
## 10         1  1497 Downtown        Entire ho…            2 1 bath            1     1    90
## # … with 30 more rows
…
Also recall from the previous section that the point estimate can vary; if
we took another random sample from the population, then the value of our estimate may change.
So then did we just get lucky with our point estimate above?
How much does our estimate vary across different samples of size 40 in this example? Again, since we have access to the population,
we can take many samples and plot the sampling distribution of sample means for samples of size 40 to get a sense
for this variation. In this case, we’ll use 15,000 samples of size 40.

samples <- rep_sample_n(airbnb, size = 40, reps = 15000)
samples

## # A tibble: 600,000 x 9
## # Groups:   replicate [15,000]
##    replicate    id neighbourhood   room_type   accommodates bathrooms bedrooms  beds price
##        <int> <int> <chr>           <chr>              <dbl> <chr>        <dbl> <dbl> <dbl>
##  1         1  3461 West End        Entire hom…            5 2 baths          2     1   150
##  2         1  3380 Sunset          Entire hom…            2 1 bath           1     1    56
##  3         1  2653 Kensington-Ced… Private ro…            3 1 shared…        1     2    39
##  4         1   324 Killarney       Private ro…            2 1 privat…        1     1    90
##  5         1  1260 Dunbar Southla… Private ro…            1 1 shared…        1     1    46
##  6         1  4412 West End        Entire hom…            6 2 baths          2     2   199
##  7         1  3262 Mount Pleasant  Entire hom…            7 2 baths          3     4   499
##  8         1  2986 West End        Entire hom…            3 1 bath           1     1   208
##  9         1  1988 Downtown        Entire hom…            6 2 baths          2     3   266
## 10         1  4276 Kensington-Ced… Private ro…            4 1 privat…        1     2    85
## # … with 599,990 more rows

sample_estimates <- samples %>%
  group_by(replicate) %>%
  summarise(sample_mean = mean(price))
sample_estimates

## # A tibble: 15,000 x 2
##    replicate sample_mean
##        <int>       <dbl>
##  1         1        137.
##  2         2        171.
##  3         3        164.
##  4         4        150.
##  5         5        168.
##  6         6        172.
##  7         7        184.
##  8         8        159.
##  9         9        229.
## 10        10        152.
## # … with 14,990 more rows
…
Let’s continue working with our Airbnb data. Once again, let’s say we are interested in estimating the population mean price per night of all Airbnb listings in
Vancouver, Canada using a single sample we collected of size 40.

To simulate doing this in R, we will use rep_sample_n to take a random sample from from our population. In real life we wouldn’t do this step in R, we would instead simply load the data into R, that we, or our collaborators collected.

After we have our sample, we will visualize it’s distribution and calculate our point estimate, the sample mean.

one_sample <- airbnb %>%
  rep_sample_n(40) %>%
  ungroup() %>% # ungroup the data frame
  select(price) # drop the replicate column
one_sample

## # A tibble: 40 x 1
##    price
##    <dbl>
##  1    32
##  2    65
##  3   199
##  4   192
##  5    94
##  6    68
##  7   179
##  8   240
##  9   112
## 10   369
## # … with 30 more rows
…
We now perform steps (1) - (5) listed above to generate a single bootstrap sample in R using the
sample we just took, and calculate the bootstrap estimate for that sample. We
will use the rep_sample_n function as we did when we were creating our
sampling distribution. Since we want to sample with replacement, we change the
argument for replace from its default value of FALSE to TRUE.

boot1 <- one_sample %>%
  rep_sample_n(size = 40, replace = TRUE, reps = 1)
boot1

## # A tibble: 40 x 2
## # Groups:   replicate [1]
##    replicate price
##        <int> <dbl>
##  1         1   180
##  2         1   394
##  3         1    97
##  4         1   192
##  5         1    49
##  6         1    32
##  7         1    32
##  8         1   189
##  9         1    94
## 10         1    35
## # … with 30 more rows
…
Let’s now take 15,000 bootstrap samples from the original sample we drew from the
population (one_sample) using rep_sample_n and calculate the means for
each of those replicates. Recall that this assumes that one_sample looks like
our original population; but since we do not have access to the population itself,
this is often the best we can do.

boot15000 <- one_sample %>%
  rep_sample_n(size = 40, replace = TRUE, reps = 15000)
boot15000

## # A tibble: 600,000 x 2
## # Groups:   replicate [15,000]
##    replicate price
##        <int> <dbl>
##  1         1    65
##  2         1   240
##  3         1    68
##  4         1   369
##  5         1   192
##  6         1   180
##  7         1   245
##  8         1    65
##  9         1    94
## 10         1   350
## # … with 599,990 more rows
…
We can see that the bootstrap sample distributions and the sample means are different. This is because we are sampling with replacement. We will now calculate point estimates for our 15,000 bootstrap samples and generate a bootstrap distribution of our point estimates. The bootstrap distribution suggests how we might expect our point estimate to behave if we took another sample.

boot15000_means <- boot15000 %>%
  group_by(replicate) %>%
  summarize(mean = mean(price))
boot15000_means

## # A tibble: 15,000 x 2
##    replicate  mean
##        <int> <dbl>
##  1         1  166.
##  2         2  144.
##  3         3  143.
##  4         4  213.
##  5         5  148.
##  6         6  162 
##  7         7  153.
##  8         8  168.
##  9         9  166.
## 10        10  139.
## # … with 14,990 more rows
…
