Chapter 1 R and the tidyverse | Data Science: A First Introduction
…
After loading the tidyverse package, we can call the read_csv function and
pass it a single argument: the name of the file, "can_lang.csv". We have to put quotes around file names and other letters and words that we use in our code to distinguish it from the special words that make up the R programming language. The file’s name is the only argument we need to provide because our file satisfies everything else the read_csv function expects in the default use-case.

read_csv("data/can_lang.csv")

## # A tibble: 214 x 6
##    category       language    mother_tongue most_at_home most_at_work lang_known
##    <chr>          <chr>               <dbl>        <dbl>        <dbl>      <dbl>
##  1 Aboriginal la… Aboriginal…           590          235           30        665
##  2 Non-Official … Afrikaans           10260         4785           85      23415
##  3 Non-Official … Afro-Asiat…          1150          445           10       2775
##  4 Non-Official … Akan (Twi)          13460         5985           25      22150
##  5 Non-Official … Albanian            26895        13135          345      31930
##  6 Aboriginal la… Algonquian…            45           10            0        120
##  7 Aboriginal la… Algonquin            1260          370           40       2480
##  8 Non-Official … American S…          2685         3020         1145      21930
##  9 Non-Official … Amharic             22465        12785          200      33670
## 10 Non-Official … Arabic             419890       223535         5585     629055
## # … with 204 more rows
…
can_lang <- read_csv("data/can_lang.csv")

Wait a minute, nothing happened this time! Or at least it looks like that?
But actually, something did happen! The data was loaded in
and now has the name can_lang associated with it.
And we can use that name to access the data frame and do things with it.
We can type the name of the data frame to print the first few rows
on the screen.

can_lang

## # A tibble: 214 x 6
##    category       language    mother_tongue most_at_home most_at_work lang_known
##    <chr>          <chr>               <dbl>        <dbl>        <dbl>      <dbl>
##  1 Aboriginal la… Aboriginal…           590          235           30        665
##  2 Non-Official … Afrikaans           10260         4785           85      23415
##  3 Non-Official … Afro-Asiat…          1150          445           10       2775
##  4 Non-Official … Akan (Twi)          13460         5985           25      22150
##  5 Non-Official … Albanian            26895        13135          345      31930
##  6 Aboriginal la… Algonquian…            45           10            0        120
##  7 Aboriginal la… Algonquin            1260          370           40       2480
##  8 Non-Official … American S…          2685         3020         1145      21930
##  9 Non-Official … Amharic             22465        12785          200      33670
## 10 Non-Official … Arabic             419890       223535         5585     629055
## # … with 204 more rows

1.7 Creating subsets of data frames with filter & select

Now that we’ve loaded our data into R, we can start wrangling the data to answer our question, what ten Aboriginal languages were most often reported in 2016 as mother tongues in Canada, and how many people speak each of them? To answer this question, we can construct a table with the ten Aboriginal languages that have highest counts in the mother_tongue column.

The select and filter functions from the tidyverse package will help us here. The select function allows you to create a subset of the columns of a data frame, while the filter function allows you to obtain a subset of the rows with specific values. Therefore, we can filter rows for only the Aboriginal languages in the data set and then use select to obtain only the columns we want to include in our table.

Let’s take a look at the language data collected in the 2016 Canadian census again to familiarize ourselves with it. We will do this by printing the data we loaded earlier in the chapter to the screen.

can_lang

## # A tibble: 214 x 6
##    category       language    mother_tongue most_at_home most_at_work lang_known
##    <chr>          <chr>               <dbl>        <dbl>        <dbl>      <dbl>
##  1 Aboriginal la… Aboriginal…           590          235           30        665
##  2 Non-Official … Afrikaans           10260         4785           85      23415
##  3 Non-Official … Afro-Asiat…          1150          445           10       2775
##  4 Non-Official … Akan (Twi)          13460         5985           25      22150
##  5 Non-Official … Albanian            26895        13135          345      31930
##  6 Aboriginal la… Algonquian…            45           10            0        120
##  7 Aboriginal la… Algonquin            1260          370           40       2480
##  8 Non-Official … American S…          2685         3020         1145      21930
##  9 Non-Official … Amharic             22465        12785          200      33670
## 10 Non-Official … Arabic             419890       223535         5585     629055
## # … with 204 more rows
…
What’s a logical statement? A logical statement is a sentence that is TRUE or FALSE. For example, 1 > 2 is logical statement. If you type this statement into R, you are asking R “Is the number 1 greater than 2?” and you will get FALSE as your answer.

With these arguments, filter returns a data frame that has all the columns of the input data frame but only the rows we asked for in our logical filter statement.

aboriginal_lang <- filter(can_lang, category == "Aboriginal languages")
aboriginal_lang

## # A tibble: 67 x 6
##    category     language      mother_tongue most_at_home most_at_work lang_known
##    <chr>        <chr>                 <dbl>        <dbl>        <dbl>      <dbl>
##  1 Aboriginal … Aboriginal l…           590          235           30        665
##  2 Aboriginal … Algonquian l…            45           10            0        120
##  3 Aboriginal … Algonquin              1260          370           40       2480
##  4 Aboriginal … Athabaskan l…            50           10            0         85
##  5 Aboriginal … Atikamekw              6150         5465         1100       6645
##  6 Aboriginal … Babine (Wets…           110           20           10        210
##  7 Aboriginal … Beaver                  190           50            0        340
##  8 Aboriginal … Blackfoot              2815         1110           85       5645
##  9 Aboriginal … Carrier                1025          250           15       2100
## 10 Aboriginal … Cayuga                   45           10           10        125
## # … with 57 more rows

It’s good practice to check the output we get makes sense after we perform a function in R. We can see the original can_lang data set contained 214 rows with categories other than just “Aboriginal languages.” The data frame aboriginal_lang contains 67 rows and looks like it only contains languages in the “Aboriginal languages” in the category column, which is what we want!

1.7.2 Using select to extract columns

Now let’s use select to extract the language and mother_tongue columns from this data frame. To extract these columns, we need to provide the select function with three arguments. The first argument is the
name of the data frame object, which in this example is aboriginal_lang. The second and third arguments are the column names that we want to select, here language and mother_tongue. After passing these three arguments,
the select function returns two columns (the language and mother_tongue columns that we asked for) as a data frame.

selected_lang <- select(aboriginal_lang, language, mother_tongue)
selected_lang

## # A tibble: 67 x 2
##    language                     mother_tongue
##    <chr>                                <dbl>
##  1 Aboriginal languages, n.o.s.           590
##  2 Algonquian languages, n.i.e.            45
##  3 Algonquin                             1260
##  4 Athabaskan languages, n.i.e.            50
##  5 Atikamekw                             6150
##  6 Babine (Wetsuwet'en)                   110
##  7 Beaver                                 190
##  8 Blackfoot                             2815
##  9 Carrier                               1025
## 10 Cayuga                                  45
## # … with 57 more rows

Note: we didn’t actually need to select the columns in our data frame before moving on to the next step! However, select allows us to display only the columns in the data frame we want and can make it easier for us to view the data especially if we have a large data frame with lots of columns.

1.7.3 Using arrange to order and slice to select rows by index number

We have used filter and select to obtain a table with only the Aboriginal languages in the data set and their associated counts. However, we want to know the ten languages that are spoken most often. As a next step, we could order the mother_tongue column from greatest to least and then select only the top ten rows. This is where the arrange and slice functions come to the rescue!

The arrange function allows us to order the rows of a data frame by the values of a selected column. We need to pass the data frame, and the variable to order by in the first two arguments of this function. Since we want to choose the ten Aboriginal languages most often reported as a mother tongue language, we will use the arrange function to order the rows in our selected_lang data frame by the mother_tongue column. We want to order the rows in descending order (from largest to smallest) so we include desc before the column name mother_tongue to sort in descending order.

arranged_lang <- arrange(selected_lang, by = desc(mother_tongue))
arranged_lang

## # A tibble: 67 x 2
##    language          mother_tongue
##    <chr>                     <dbl>
##  1 Cree, n.o.s.              64050
##  2 Inuktitut                 35210
##  3 Ojibway                   17885
##  4 Oji-Cree                  12855
##  5 Dene                      10700
##  6 Montagnais (Innu)         10235
##  7 Mi'kmaq                    6690
##  8 Atikamekw                  6150
##  9 Plains Cree                3065
## 10 Stoney                     3025
## # … with 57 more rows
…
