Chapter 8 Regression I: K-nearest neighbours | Data Science: A First Introduction
…
library(tidyverse)
library(tidymodels)
library(gridExtra)

set.seed(5)

sacramento <- read_csv("data/sacramento.csv")
sacramento

## # A tibble: 932 x 9
##    city           zip     beds baths  sqft type        price latitude longitude
##    <chr>          <chr>  <dbl> <dbl> <dbl> <chr>       <dbl>    <dbl>     <dbl>
##  1 SACRAMENTO     z95838     2     1   836 Residential 59222     38.6     -121.
##  2 SACRAMENTO     z95823     3     1  1167 Residential 68212     38.5     -121.
##  3 SACRAMENTO     z95815     2     1   796 Residential 68880     38.6     -121.
##  4 SACRAMENTO     z95815     2     1   852 Residential 69307     38.6     -121.
##  5 SACRAMENTO     z95824     2     1   797 Residential 81900     38.5     -121.
##  6 SACRAMENTO     z95841     3     1  1122 Condo       89921     38.7     -121.
##  7 SACRAMENTO     z95842     3     2  1104 Residential 90895     38.7     -121.
##  8 SACRAMENTO     z95820     3     1  1177 Residential 91002     38.5     -121.
##  9 RANCHO_CORDOVA z95670     2     2   941 Condo       94905     38.6     -121.
## 10 RIO_LINDA      z95673     3     2  1146 Residential 98937     38.7     -121.
## # … with 922 more rows
…
gridvals <- tibble(neighbors = seq(from = 1, to = 200, by = 3))

sacr_results <- sacr_wkflw %>%
  tune_grid(resamples = sacr_vfold, grid = gridvals) %>%
  collect_metrics() %>%
  filter(.metric == "rmse")

# show the results
sacr_results

## # A tibble: 67 x 7
##    neighbors .metric .estimator    mean     n std_err .config              
##        <dbl> <chr>   <chr>        <dbl> <int>   <dbl> <chr>                
##  1         1 rmse    standard   116582.     5   1396. Preprocessor1_Model01
##  2         4 rmse    standard    94142.     5   2552. Preprocessor1_Model02
##  3         7 rmse    standard    89529.     5   2635. Preprocessor1_Model03
##  4        10 rmse    standard    88309.     5   3038. Preprocessor1_Model04
##  5        13 rmse    standard    87634.     5   3263. Preprocessor1_Model05
##  6        16 rmse    standard    87081.     5   3235. Preprocessor1_Model06
##  7        19 rmse    standard    87422.     5   3479. Preprocessor1_Model07
##  8        22 rmse    standard    86936.     5   3283. Preprocessor1_Model08
##  9        25 rmse    standard    87047.     5   3306. Preprocessor1_Model09
## 10        28 rmse    standard    87213.     5   3284. Preprocessor1_Model10
## # … with 57 more rows
…
