Chapter 8 Regression II: linear regression | Data Science: A First Introduction
…
There are, however, a wide variety of cases where the predictor variables do have a
meaningful relationship with the response variable, but that relationship does not fit
the assumptions of the regression method you have chosen. For example, a dataframe df
with two variablesx and ywith a nonlinear relationship between the two variables
will not be fully captured by simple linear regression, as shown in Figure 8.11.

df

## # A tibble: 100 x 2
##         x       y
##     <dbl>   <dbl>
##  1 0.594   0.172 
##  2 0.614   0.190 
##  3 0.698   0.340 
##  4 0.467   0.0137
##  5 0.875   0.591 
##  6 0.610   0.242 
##  7 0.812   0.615 
##  8 0.0817 -0.0371
##  9 0.652   0.309 
## 10 0.142   0.0396
## #  with 90 more rows
…
