Chapter 4 Effective data visualization | Data Science: A First Introduction
…
library(tidyverse)

4.5.1 The Mauna Loa CO2 data set

The Mauna Loa CO2 data set, curated by Dr. Pieter Tans, NOAA/GML and Dr. Ralph Keeling, Scripps Institution of Oceanography
records the atmospheric concentration of carbon dioxide (CO2, in parts per million) at the Mauna Loa research station in Hawaii from 1959 onwards (Tans and Keeling 2020).

Question: Does the concentration of atmospheric CO2 change over time, and are there any interesting patterns to note?

# mauna loa carbon dioxide data
co2_df <- read_csv("data/mauna_loa.csv") |>
  filter(ppm > 0, date_decimal < 2000)
co2_df

## # A tibble: 495 x 4
##     year month date_decimal    ppm
##    <dbl> <dbl>        <dbl>  <dbl>
##  1  1958     3       1958.2 315.71
##  2  1958     4       1958.3 317.45
##  3  1958     5       1958.4 317.5 
##  4  1958     7       1958.5 315.86
##  5  1958     8       1958.6 314.93
##  6  1958     9       1958.7 313.2 
##  7  1958    11       1958.9 313.33
##  8  1958    12       1959.0 314.67
##  9  1959     1       1959.0 315.62
## 10  1959     2       1959.1 316.38
## # … with 485 more rows
…
Interesting! It seems that each year, the atmospheric CO2 increases until it reaches its peak somewhere around April, decreases until around late September,
and finally increases again until the end of the year. In Hawaii, there are two seasons: summer from May through October, and winter from November through April.
Therefore, the oscillating pattern in CO2 matches up fairly closely with the two seasons.

4.5.2 The island landmass data set

The islands.csv data set contains a list of Earth’s landmasses as well as their area (in thousands of square miles) (McNeil 1977).

Question: Are the continents (North / South America, Africa, Europe, Asia, Australia, Antarctica) Earth’s seven largest landmasses? If so, what are the next few largest landmasses after those?

# islands data
islands_df <- read_csv("data/islands.csv")
islands_df

## # A tibble: 48 x 2
##    landmass      size
##    <chr>        <dbl>
##  1 Africa       11506
##  2 Antarctica    5500
##  3 Asia         16988
##  4 Australia     2968
##  5 Axel Heiberg    16
##  6 Baffin         184
##  7 Banks           23
##  8 Borneo         280
##  9 Britain         84
## 10 Celebes         73
## # … with 38 more rows
…
Figure 4.8: Bar plot of size for Earth’s largest 12 landmasses coloured by whether its a continent with clearer axes and labels

The plot in Figure 4.8 is now a very effective visualization for answering our original questions. Landmasses are organized by their size,
and continents are coloured differently than other landmasses, making it quite clear that continents are the largest seven landmasses.

4.5.3 The Old Faithful eruption/waiting time data set

The faithful data set contains measurements of the waiting time between eruptions and the subsequent eruption duration (in minutes). The faithful data set is available in base R under the name faithful so it does not need to be loaded.

Question: Is there a relationship between the waiting time before an eruption to the duration of the eruption?

# old faithful eruption time / wait time data
faithful

## # A tibble: 272 x 2
##    eruptions waiting
##        <dbl>   <dbl>
##  1     3.6        79
##  2     1.8        54
##  3     3.333      74
##  4     2.283      62
##  5     4.533      85
##  6     2.883      55
##  7     4.7        88
##  8     3.6        85
##  9     1.95       51
## 10     4.35       85
## # … with 262 more rows
…
Figure 4.10: Scatter plot of waiting time and eruption time with clearer axes and labels

4.5.4 The Canadian languages data set

We will return to the can_lang data set (Timbers 2020), which contains counts of languages from the 2016 Canadian census.

Question: Is there a relationship between the number of people who speak a language as their mother tongue and the number of people who speak that language as their primary spoken language at home? And is there a pattern in the strength of this relationship in the higher-level language categories (Official languages, Aboriginal languages, or non-official and non-Aboriginal languages)?

can_lang <- read_csv("data/can_lang.csv")
can_lang

## # A tibble: 214 x 6
##    category                   language             mother_tongue most_at_home most_at_work lang_known
##    <chr>                      <chr>                        <dbl>        <dbl>        <dbl>      <dbl>
##  1 Aboriginal languages       Aboriginal language…           590          235           30        665
##  2 Non-Official & Non-Aborig… Afrikaans                    10260         4785           85      23415
##  3 Non-Official & Non-Aborig… Afro-Asiatic langua…          1150          445           10       2775
##  4 Non-Official & Non-Aborig… Akan (Twi)                   13460         5985           25      22150
##  5 Non-Official & Non-Aborig… Albanian                     26895        13135          345      31930
##  6 Aboriginal languages       Algonquian language…            45           10            0        120
##  7 Aboriginal languages       Algonquin                     1260          370           40       2480
##  8 Non-Official & Non-Aborig… American Sign Langu…          2685         3020         1145      21930
##  9 Non-Official & Non-Aborig… Amharic                      22465        12785          200      33670
## 10 Non-Official & Non-Aborig… Arabic                      419890       223535         5585     629055
## # … with 204 more rows
…
Similar to our example in chapter 1, we can convert the counts to percentages to make them more understandable. Changing the units allows us to better interpret the numbers in our data set. We can do this by dividing the number of people reporting a given language as their mother tongue or primary language at home by the number of people who live in Canada and multiplying by 100%. For example, the percentage of people who reported that their mother tongue was English in the
2016 Canadian census was 19,460,850 / 35,151,728 \(\times\) 100 % =
55.4%.

Below we use mutate to calculate the percentage of people reporting a given language as their mother tongue and primary language at home for all the languages in the can_lang data set. Since the new columns are appended to the end of the data table, we selected the new columns after the transformation so you can clearly see the mutated output from the table.

can_lang <- can_lang |>
  mutate(
    mother_tongue_percent = (mother_tongue / 35151728)*100,
    most_at_home_percent = (most_at_home / 35151728)*100
  )
can_lang |> 
  select(mother_tongue_percent, most_at_home_percent)

## # A tibble: 214 x 2
##    mother_tongue_percent most_at_home_percent
##                    <dbl>                <dbl>
##  1            0.0016784           0.00066853 
##  2            0.029188            0.013612   
##  3            0.0032715           0.0012659  
##  4            0.038291            0.017026   
##  5            0.076511            0.037367   
##  6            0.00012802          0.000028448
##  7            0.0035845           0.0010526  
##  8            0.0076383           0.0085913  
##  9            0.063909            0.036371   
## 10            1.1945              0.63591    
## # … with 204 more rows
…
Figure 4.17: Scatter plot of percentage of Canadians reporting a language as their mother tongue vs the primary language at home coloured by language category

4.5.5 The Michelson speed of light data set

The morley data set contains measurements of the speed of light (in kilometres per second with 299,000 subtracted) from the year 1879
for five experiments, each with 20 consecutive runs (Michelson 1882). This data set is available in base R under the name morley so it does not need to be loaded.

Question: Given what we know now about the speed of
light (299,792.458 kilometres per second), how accurate were each of the experiments?

# michelson morley experimental data
morley

## # A tibble: 100 x 3
##     Expt   Run Speed
##    <int> <int> <int>
##  1     1     1   850
##  2     1     2   740
##  3     1     3   900
##  4     1     4  1070
##  5     1     5   930
##  6     1     6   850
##  7     1     7   950
##  8     1     8   980
##  9     1     9   980
## 10     1    10   880
## # … with 90 more rows
…
