Chapter 3 Cleaning and wrangling data | Data Science: A First Introduction
…
Figure 3.8: Going from wide to long data

We can use the function pivot_longer, which combines columns, making the data frame longer and narrower. To learn how to use pivot_longer, we will work with the region_lang_top5_cities_wide.csv data set. This data set contains contains the counts of how many Canadians cited each language as their mother tongue for five major Canadian cities (Toronto, Montréal, Vancouver, Calgary and Edmonton) from the 2016 Canadian census. We will load the tidyverse packing so we can use our wrangling functions and the canlang package
since it contains the region_lang and region_data data sets that we will use later in the chapter.

Our data set is stored in an untidy format, as shown below:

library(tidyverse)
library(canlang)
lang_wide <- read_csv("data/region_lang_top5_cities_wide.csv")
lang_wide

## # A tibble: 214 x 7
##    category           language       Toronto Montréal Vancouver Calgary Edmonton
##    <chr>              <chr>            <dbl>    <dbl>     <dbl>   <dbl>    <dbl>
##  1 Aboriginal langua… Aboriginal la…      80       30        70      20       25
##  2 Non-Official & No… Afrikaans          985       90      1435     960      575
##  3 Non-Official & No… Afro-Asiatic …     360      240        45      45       65
##  4 Non-Official & No… Akan (Twi)        8485     1015       400     705      885
##  5 Non-Official & No… Albanian         13260     2450      1090    1365      770
##  6 Aboriginal langua… Algonquian la…       5        5         0       0        0
##  7 Aboriginal langua… Algonquin            5       30         5       5        0
##  8 Non-Official & No… American Sign…     470       50       265     100      180
##  9 Non-Official & No… Amharic           7460      665      1140    4075     2515
## 10 Non-Official & No… Arabic           85175   151955     14320   18965    17525
## # … with 204 more rows
…
Figure 3.10: Syntax for the pivot_longer function

For the above example, we use pivot_longer to combine the Toronto, Montréal, Vancouver, Calgary and Edmonton columns into a single column called region, and create a column called mother_tongue that contains the count of how many Canadians report each language as their mother tongue for each metropolitan area. We use a colon , between Toronto, and Edmonton tells R to select all the columns in between Toronto and Edmonton:

lang_mother_tidy <- pivot_longer(lang_wide,
  cols = Toronto:Edmonton,
  names_to = "region",
  values_to = "mother_tongue"
)
lang_mother_tidy

## # A tibble: 1,070 x 4
##    category                        language               region   mother_tongue
##    <chr>                           <chr>                  <chr>            <dbl>
##  1 Aboriginal languages            Aboriginal languages,… Toronto             80
##  2 Aboriginal languages            Aboriginal languages,… Montréal            30
##  3 Aboriginal languages            Aboriginal languages,… Vancouv…            70
##  4 Aboriginal languages            Aboriginal languages,… Calgary             20
##  5 Aboriginal languages            Aboriginal languages,… Edmonton            25
##  6 Non-Official & Non-Aboriginal … Afrikaans              Toronto            985
##  7 Non-Official & Non-Aboriginal … Afrikaans              Montréal            90
##  8 Non-Official & Non-Aboriginal … Afrikaans              Vancouv…          1435
##  9 Non-Official & Non-Aboriginal … Afrikaans              Calgary            960
## 10 Non-Official & Non-Aboriginal … Afrikaans              Edmonton           575
## # … with 1,060 more rows
…
Figure 3.11: Going from long to wide data

To tidy this type of data in R, we can use the function pivot_wider, which generally increases the number of columns (widens) and decreases the number of rows in a data set. The data set region_lang_top5_cities_long.csv contains the number of Canadians reporting the primary language at home and work for five major cities (Toronto, Montréal, Vancouver, Calgary and Edmonton).

lang_long <- read_csv("data/region_lang_top5_cities_long.csv")
lang_long

## # A tibble: 2,140 x 5
##    region    category             language                     type        count
##    <chr>     <chr>                <chr>                        <chr>       <dbl>
##  1 Montréal  Aboriginal languages Aboriginal languages, n.o.s. most_at_ho…    15
##  2 Montréal  Aboriginal languages Aboriginal languages, n.o.s. most_at_wo…     0
##  3 Toronto   Aboriginal languages Aboriginal languages, n.o.s. most_at_ho…    50
##  4 Toronto   Aboriginal languages Aboriginal languages, n.o.s. most_at_wo…     0
##  5 Calgary   Aboriginal languages Aboriginal languages, n.o.s. most_at_ho…     5
##  6 Calgary   Aboriginal languages Aboriginal languages, n.o.s. most_at_wo…     0
##  7 Edmonton  Aboriginal languages Aboriginal languages, n.o.s. most_at_ho…    10
##  8 Edmonton  Aboriginal languages Aboriginal languages, n.o.s. most_at_wo…     0
##  9 Vancouver Aboriginal languages Aboriginal languages, n.o.s. most_at_ho…    15
## 10 Vancouver Aboriginal languages Aboriginal languages, n.o.s. most_at_wo…     0
## # … with 2,130 more rows
…
Figure 3.13: Syntax for the pivot_wider function

We will apply the function as detailed in Figure 3.13.

lang_home_tidy <- pivot_wider(lang_long,
  names_from = type,
  values_from = count
)
lang_home_tidy

## # A tibble: 1,070 x 5
##    region   category                language           most_at_home most_at_work
##    <chr>    <chr>                   <chr>                     <dbl>        <dbl>
##  1 Montréal Aboriginal languages    Aboriginal langua…           15            0
##  2 Toronto  Aboriginal languages    Aboriginal langua…           50            0
##  3 Calgary  Aboriginal languages    Aboriginal langua…            5            0
##  4 Edmonton Aboriginal languages    Aboriginal langua…           10            0
##  5 Vancouv… Aboriginal languages    Aboriginal langua…           15            0
##  6 Montréal Non-Official & Non-Abo… Afrikaans                    10            0
##  7 Toronto  Non-Official & Non-Abo… Afrikaans                   265            0
##  8 Calgary  Non-Official & Non-Abo… Afrikaans                   505           15
##  9 Edmonton Non-Official & Non-Abo… Afrikaans                   300            0
## 10 Vancouv… Non-Official & Non-Abo… Afrikaans                   520           10
## # … with 1,060 more rows
…
Each observation, i.e., each category, language, region, most_at_home and most_at_work, are in a single row.

Each value is a single cell, i.e., its row, column position in the data frame is not shared with another value.

You might notice that we have the same number of columns in our tidy data set as we did in our messy one. Therefore pivot_wider didn’t really “widen” our data as the name suggests. However, if we had more than two categories in the original type column, then we would see the data set “widen.”

3.4.5 Using separate to deal with multiple delimiters

Data are also not considered tidy when multiple values are stored in the same cell. The data set we show below is even messier than the ones we dealt with above: the Toronto, Montréal, Vancouver, Calgary and Edmonton columns contain the number of Canadians reporting their primary language at home and work in one column separated by the delimiter “/.” The column names are the values of a variable, AND each value does not have its own cell! To turn this messy data into tidy data, we’ll have to fix these issues.

lang_messy <- read_csv("data/region_lang_top5_cities_messy.csv")
lang_messy

## # A tibble: 214 x 7
##    category          language       Toronto  Montréal Vancouver Calgary Edmonton
##    <chr>             <chr>          <chr>    <chr>    <chr>     <chr>   <chr>   
##  1 Aboriginal langu… Aboriginal la… 50/0     15/0     15/0      5/0     10/0    
##  2 Non-Official & N… Afrikaans      265/0    10/0     520/10    505/15  300/0   
##  3 Non-Official & N… Afro-Asiatic … 185/10   65/0     10/0      15/0    20/0    
##  4 Non-Official & N… Akan (Twi)     4045/20  440/0    125/10    330/0   445/0   
##  5 Non-Official & N… Albanian       6380/215 1445/20  530/10    620/25  370/10  
##  6 Aboriginal langu… Algonquian la… 5/0      0/0      0/0       0/0     0/0     
##  7 Aboriginal langu… Algonquin      0/0      10/0     0/0       0/0     0/0     
##  8 Non-Official & N… American Sign… 720/245  70/0     300/140   85/25   190/85  
##  9 Non-Official & N… Amharic        3820/55  315/0    540/10    2730/50 1695/35 
## 10 Non-Official & N… Arabic         45025/1… 72980/1… 8680/275  11010/… 10590/3…
## # … with 204 more rows

First we’ll use pivot_longer to create two columns, region and value, similar to what we did previously:

lang_messy_longer <- pivot_longer(lang_messy,
  cols = Toronto:Edmonton,
  names_to = "region",
  values_to = "value"
)
lang_messy_longer

## # A tibble: 1,070 x 4
##    category                            language                   region   value
##    <chr>                               <chr>                      <chr>    <chr>
##  1 Aboriginal languages                Aboriginal languages, n.o… Toronto  50/0 
##  2 Aboriginal languages                Aboriginal languages, n.o… Montréal 15/0 
##  3 Aboriginal languages                Aboriginal languages, n.o… Vancouv… 15/0 
##  4 Aboriginal languages                Aboriginal languages, n.o… Calgary  5/0  
##  5 Aboriginal languages                Aboriginal languages, n.o… Edmonton 10/0 
##  6 Non-Official & Non-Aboriginal lang… Afrikaans                  Toronto  265/0
##  7 Non-Official & Non-Aboriginal lang… Afrikaans                  Montréal 10/0 
##  8 Non-Official & Non-Aboriginal lang… Afrikaans                  Vancouv… 520/…
##  9 Non-Official & Non-Aboriginal lang… Afrikaans                  Calgary  505/…
## 10 Non-Official & Non-Aboriginal lang… Afrikaans                  Edmonton 300/0
## # … with 1,060 more rows
…
col: the name of a the column we need to split

into: a character vector of the new column names we would like to put the split data into

sep: the separator on which to split

lang_no_delimiter <- separate(lang_messy_longer,
  col = value,
  into = c("most_at_home", "most_at_work"),
  sep = "/"
)
lang_no_delimiter

## # A tibble: 1,070 x 5
##    category                 language           region  most_at_home most_at_work
##    <chr>                    <chr>              <chr>   <chr>        <chr>       
##  1 Aboriginal languages     Aboriginal langua… Toronto 50           0           
##  2 Aboriginal languages     Aboriginal langua… Montré… 15           0           
##  3 Aboriginal languages     Aboriginal langua… Vancou… 15           0           
##  4 Aboriginal languages     Aboriginal langua… Calgary 5            0           
##  5 Aboriginal languages     Aboriginal langua… Edmont… 10           0           
##  6 Non-Official & Non-Abor… Afrikaans          Toronto 265          0           
##  7 Non-Official & Non-Abor… Afrikaans          Montré… 10           0           
##  8 Non-Official & Non-Abor… Afrikaans          Vancou… 520          10          
##  9 Non-Official & Non-Abor… Afrikaans          Calgary 505          15          
## 10 Non-Official & Non-Abor… Afrikaans          Edmont… 300          0           
## # … with 1,060 more rows
…
3.4.6 Notes on defining tidy data

Is there only one shape for tidy data for a given data set? Not necessarily! It depends on the statistical question you are asking and what the variables are for that question. For tidy data, each variable should be its own column. So, just as it’s essential to match your statistical question with the appropriate data analysis tool (classification, clustering, hypothesis testing, etc.). It’s important to match your statistical question with the appropriate variables and ensure they are represented as individual columns to make the data tidy.

3.5 Using select to extract a range of columns

Chapter 1 discussed two tidyverse functions: select and filter to select columns and filter rows from a data frame. We will now learn more ways we can use these functions. Recall, the select function creates a subset of the columns of a data frame, while the filter subsets rows with specific values.

We can use select to obtain a subset of the data frame constructed from a range of columns rather than typing each column name out. To do this, we use the colon (:) operator to denote the range. For example, to get all the columns in the lang_no_delimiter data frame from language to most_at_work we pass language:most_at_work as the second argument to the select function.

column_range <- select(lang_no_delimiter, language:most_at_work)
column_range

## # A tibble: 1,070 x 4
##    language                     region    most_at_home most_at_work
##    <chr>                        <chr>     <chr>        <chr>       
##  1 Aboriginal languages, n.o.s. Toronto   50           0           
##  2 Aboriginal languages, n.o.s. Montréal  15           0           
##  3 Aboriginal languages, n.o.s. Vancouver 15           0           
##  4 Aboriginal languages, n.o.s. Calgary   5            0           
##  5 Aboriginal languages, n.o.s. Edmonton  10           0           
##  6 Afrikaans                    Toronto   265          0           
##  7 Afrikaans                    Montréal  10           0           
##  8 Afrikaans                    Vancouver 520          10          
##  9 Afrikaans                    Calgary   505          15          
## 10 Afrikaans                    Edmonton  300          0           
## # … with 1,060 more rows
…
3.6.2 Using filter to extract rows with !=

What if we want all the other language categories in the data set except for those in the “Official languages” category? We can accomplish this with the != logical operator, which means “NOT EQUAL TO.” So if we want to find all the rows where the category does NOT equal “Official languages” we write the code below.

filter(lang_no_delimiter, category != "Official languages")

## # A tibble: 1,060 x 5
##    category                 language           region  most_at_home most_at_work
##    <chr>                    <chr>              <chr>   <chr>        <chr>       
##  1 Aboriginal languages     Aboriginal langua… Toronto 50           0           
##  2 Aboriginal languages     Aboriginal langua… Montré… 15           0           
##  3 Aboriginal languages     Aboriginal langua… Vancou… 15           0           
##  4 Aboriginal languages     Aboriginal langua… Calgary 5            0           
##  5 Aboriginal languages     Aboriginal langua… Edmont… 10           0           
##  6 Non-Official & Non-Abor… Afrikaans          Toronto 265          0           
##  7 Non-Official & Non-Abor… Afrikaans          Montré… 10           0           
##  8 Non-Official & Non-Abor… Afrikaans          Vancou… 520          10          
##  9 Non-Official & Non-Abor… Afrikaans          Calgary 505          15          
## 10 Non-Official & Non-Abor… Afrikaans          Edmont… 300          0           
## # … with 1,050 more rows
…
## # A tibble: 4 x 5
##   category           language region   most_at_home most_at_work
##   <chr>              <chr>    <chr>    <chr>        <chr>       
## 1 Official languages English  Calgary  1065070      844740      
## 2 Official languages English  Edmonton 1050410      792700      
## 3 Official languages French   Calgary  8630         2140        
## 4 Official languages French   Edmonton 10950        2520

3.6.5 Using filter to extract rows with %in%

Suppose we want to see the populations of our five cities. The region_data data set from the canlang package contains statistics for number of households, land area, population and number of dwellings for different regions according to the 2016 Canadian census.

region_data

## # A tibble: 35 x 5
##    region         households  area population dwellings
##    <chr>               <dbl> <dbl>      <dbl>     <dbl>
##  1 Belleville          43002 1355.     103472     45050
##  2 Lethbridge          45696 3047.     117394     48317
##  3 Thunder Bay         52545 2618.     121621     57146
##  4 Peterborough        50533 1637.     121721     55662
##  5 Saint John          52872 3793.     126202     58398
##  6 Brantford           52530 1086.     134203     54419
##  7 Moncton             61769 2625.     144810     66699
##  8 Guelph              59280  604.     151984     63324
##  9 Trois-Rivières      72502 1053.     156042     77734
## 10 Saguenay            72479 3079.     160980     77968
## # … with 25 more rows
…
Next, let’s learn about the details of using the pipe, and look at some examples of how to use it in data analysis.

3.9.1 Using |> to combine filter and select

Let’s work with our tidy lang_home_tidy data set from above, which contains the number of Canadians reporting their primary language at home and work for five major cities (Toronto, Montréal, Vancouver, Calgary and Edmonton):

lang_home_tidy

## # A tibble: 1,070 x 5
##    region   category                language           most_at_home most_at_work
##    <chr>    <chr>                   <chr>                     <dbl>        <dbl>
##  1 Montréal Aboriginal languages    Aboriginal langua…           15            0
##  2 Toronto  Aboriginal languages    Aboriginal langua…           50            0
##  3 Calgary  Aboriginal languages    Aboriginal langua…            5            0
##  4 Edmonton Aboriginal languages    Aboriginal langua…           10            0
##  5 Vancouv… Aboriginal languages    Aboriginal langua…           15            0
##  6 Montréal Non-Official & Non-Abo… Afrikaans                    10            0
##  7 Toronto  Non-Official & Non-Abo… Afrikaans                   265            0
##  8 Calgary  Non-Official & Non-Abo… Afrikaans                   505           15
##  9 Edmonton Non-Official & Non-Abo… Afrikaans                   300            0
## 10 Vancouv… Non-Official & Non-Abo… Afrikaans                   520           10
## # … with 1,060 more rows

Suppose we want to create a subset of the data with only the languages and counts of each language spoken most at home for the city of Vancouver. To do this, we can use the functions filter and select. First, we use filter to create a data frame called van_data that contains only values for Vancouver. We then use select on this data frame to keep only the variables we want:

van_data <- filter(lang_home_tidy, region == "Vancouver")
van_data

## # A tibble: 214 x 5
##    region   category                language           most_at_home most_at_work
##    <chr>    <chr>                   <chr>                     <dbl>        <dbl>
##  1 Vancouv… Aboriginal languages    Aboriginal langua…           15            0
##  2 Vancouv… Non-Official & Non-Abo… Afrikaans                   520           10
##  3 Vancouv… Non-Official & Non-Abo… Afro-Asiatic lang…           10            0
##  4 Vancouv… Non-Official & Non-Abo… Akan (Twi)                  125           10
##  5 Vancouv… Non-Official & Non-Abo… Albanian                    530           10
##  6 Vancouv… Aboriginal languages    Algonquian langua…            0            0
##  7 Vancouv… Aboriginal languages    Algonquin                     0            0
##  8 Vancouv… Non-Official & Non-Abo… American Sign Lan…          300          140
##  9 Vancouv… Non-Official & Non-Abo… Amharic                     540           10
## 10 Vancouv… Non-Official & Non-Abo… Arabic                     8680          275
## # … with 204 more rows
…
